-------------------------------------------------------------------------------
Test set: hello.ApplicationIntegrationTests
-------------------------------------------------------------------------------
Tests run: 1, Failures: 0, Errors: 1, Skipped: 0, Time elapsed: 5.071 sec <<< FAILURE! - in hello.ApplicationIntegrationTests
testSendAndReceive(hello.ApplicationIntegrationTests)  Time elapsed: 0.432 sec  <<< ERROR!
org.springframework.ws.client.WebServiceTransportException:  [404]
	at org.springframework.ws.client.core.WebServiceTemplate.handleError(WebServiceTemplate.java:699)
	at org.springframework.ws.client.core.WebServiceTemplate.doSendAndReceive(WebServiceTemplate.java:609)
	at org.springframework.ws.client.core.WebServiceTemplate.sendAndReceive(WebServiceTemplate.java:555)
	at org.springframework.ws.client.core.WebServiceTemplate.marshalSendAndReceive(WebServiceTemplate.java:390)
	at org.springframework.ws.client.core.WebServiceTemplate.marshalSendAndReceive(WebServiceTemplate.java:378)
	at hello.ApplicationIntegrationTests.testSendAndReceive(ApplicationIntegrationTests.java:55)

